	{
		"metadata": {
			"formatVersion" : 3.1,
			"generatedBy"   : "Blender 2.7 Exporter",
			"vertices"      : 19,
			"faces"         : 17,
			"normals"       : 2,
			"colors"        : 0,
			"uvs"           : [19],
			"materials"     : 1,
			"morphTargets"  : 0,
			"bones"         : 0
		},
			"scale" : 1.000000,
			
			"vertices" : [-7.8,4,-7,-7.8,-3.0598e-07,-7,7.8,4,-7,-3,-3.0598e-07,-7,-3,0.919076,-7,-3,2.29769,-7,-2.50784,2.52824,-7,-1.94519,2.72546,-7,-1.32551,2.87533,-7,-0.704336,2.96536,-7,-2.75133e-05,3,-7,0.704281,2.96537,-7,1.34809,2.87096,-7,1.94514,2.72548,-7,2.52785,2.52002,-7,3,2.29769,-7,3,1.37861,-7,3,-3.0598e-07,-7,7.8,-3.0598e-07,-7],
			"faces"    : [42,2,17,18,0,0,1,2,0,0,0,42,15,16,17,0,3,4,1,0,0,0,42,3,4,5,0,5,6,7,0,0,0,42,2,15,17,0,0,3,1,0,0,0,42,1,3,5,0,8,5,7,0,0,0,42,2,14,15,0,0,9,3,0,1,0,42,0,1,5,0,10,8,7,0,0,0,42,2,13,14,0,0,11,9,0,0,1,42,0,5,6,0,10,7,12,0,0,0,42,2,12,13,0,0,13,11,0,0,0,42,0,6,7,0,10,12,14,0,0,0,42,2,11,12,0,0,15,13,0,0,0,42,0,7,8,0,10,14,16,0,0,0,42,2,10,11,0,0,17,15,0,0,0,42,0,8,9,0,10,16,18,0,0,1,42,2,9,10,0,0,18,17,0,1,0,42,2,0,9,0,0,10,18,0,0,1],
			"uvs"      : [[1.00017,0.253775,0.691939,-0.003088,1.00017,-0.003088,0.691939,0.14446,0.691939,0.085441,0.306644,-0.003088,0.306644,0.055931,0.306644,0.14446,-0.001591,-0.003088,0.661619,0.158737,-0.001591,0.253775,0.6242,0.171931,0.338249,0.159265,0.58586,0.181273,0.37438,0.17193,0.544517,0.187335,0.414173,0.181553,0.49929,0.189559,0.454062,0.187335]],
			"normals"  : [0,0,1,0,0,0.999969],
			
			"skinIndices"  : [],
			"skinWeights"  : [],
			"morphTargets" : [],
			
			"bones"      : [],
			"animations" : [],
			
			"colors"    : [],
			"materials" : [
				{
					"DbgColor": 15658734,
					"DbgIndex": 0,
					"DbgName": "default",
					"vertexColors": false
				}
			]

	}
