	{
		"metadata": {
			"formatVersion" : 3.1,
			"generatedBy"   : "Blender 2.7 Exporter",
			"vertices"      : 698,
			"faces"         : 1035,
			"normals"       : 693,
			"colors"        : 0,
			"uvs"           : [],
			"materials"     : 1,
			"morphTargets"  : 0,
			"bones"         : 0
		},
			"scale" : 1.000000,
			
			"vertices" : [0.471311,0.171619,0,0.46429,0.164867,0,0.475974,0.175197,0,0.4876,0.184554,0,0.499181,0.192941,0,0.51073,0.200359,0,0.52226,0.206807,0,0.533781,0.21228,0,0.545299,0.216772,0,0.556816,0.220275,0,0.568331,0.222782,0,0.579833,0.224287,0,0.591298,0.224788,0,0.606275,0.224167,0,0.620825,0.222307,0,0.634928,0.21921,0,0.64854,0.214883,0,0.661617,0.209336,0,0.674115,0.202587,0,0.685993,0.194657,0,0.69721,0.18557,0,0.707735,0.175355,0,0.717538,0.164039,0,0.726596,0.151647,0,0.72703,0.150945,0,0.727255,0.151191,0,0.73785,0.161945,0,0.748911,0.172238,0,0.760477,0.18196,0,0.772591,0.190995,0,0.785291,0.199228,0,0.798613,0.206535,0,0.812587,0.212791,0,0.827236,0.217869,0,0.84257,0.221641,0,0.858596,0.223986,0,0.875404,0.224795,0,0.898832,0.223266,0,0.920948,0.218714,0,0.941518,0.21124,0,0.960379,0.200964,0,0.977376,0.188038,0,0.992367,0.172636,0,1.00524,0.154939,0,1.01592,0.135126,0,1.02432,0.113361,0,1.03039,0.0897942,0,1.03408,0.0645605,0,1.03531,0.0380325,0,1.03531,-0.255223,0,0.92431,-0.255223,0,0.92431,0.0334897,0,0.923501,0.0489379,0,0.921219,0.0627131,0,0.917593,0.0751006,0,0.912759,0.08612,0,0.90684,0.0958014,0,0.899942,0.104179,0,0.892153,0.111284,0,0.883546,0.117133,0,0.874187,0.121727,0,0.864142,0.12505,0,0.853487,0.127073,0,0.842182,0.127764,0,0.835979,0.12753,0,0.829445,0.12644,0,0.822381,0.12447,0,0.81489,0.121637,0,0.807071,0.117977,0,0.799018,0.113543,0,0.790815,0.108393,0,0.782543,0.102587,0,0.774276,0.0961911,0,0.766086,0.08927,0,0.758042,0.0818899,0,0.753311,0.0771958,0,0.753311,-0.255223,0,0.64231,-0.255223,0,0.64231,0.0345391,0,0.64159,0.0511566,0,0.639554,0.0657175,0,0.636336,0.0784949,0,0.632083,0.0895539,0,0.626934,0.0989823,0,0.621007,0.10689,0,0.614387,0.113397,0,0.607127,0.118615,0,0.599253,0.122626,0,0.590793,0.125477,0,0.581786,0.127187,0,0.57213,0.127768,0,0.562004,0.12749,0,0.552341,0.126621,0,0.543243,0.125134,0,0.534606,0.122993,0,0.52631,0.120153,0,0.518231,0.116552,0,0.510251,0.112116,0,0.502264,0.106762,0,0.494181,0.100405,0,0.485927,0.092969,0,0.477435,0.0843849,0,0.471311,0.0775638,0,0.471311,-0.255223,0,0.36031,-0.255223,0,0.36031,0.215778,0,0.471311,0.215778,0,0.28522,-0.0510593,0,0.278999,-0.0848519,0,0.268833,-0.116398,0,0.2549,-0.14548,0,0.237392,-0.171875,0,0.216516,-0.195361,0,0.192496,-0.215725,0,0.165562,-0.232769,0,0.13595,-0.246307,0,0.10389,-0.256169,0,0.0696076,-0.262198,0,0.0332853,-0.264242,0,-0.00170082,-0.262113,0,-0.0349015,-0.255854,0,-0.0660532,-0.24567,0,-0.0949102,-0.231774,0,-0.121227,-0.214389,0,-0.144759,-0.193746,0,-0.165269,-0.170086,0,-0.182527,-0.143655,0,-0.196309,-0.114702,0,-0.206402,-0.0834803,0,-0.212601,-0.0502392,0,-0.214712,-0.0151877,0,-0.212512,0.0178528,0,-0.20607,0.0494578,0,-0.195643,0.0793075,0,-0.181495,0.107123,0,-0.163893,0.132634,0,-0.143107,0.155574,0,-0.119406,0.175682,0,-0.0930608,0.1927,0,-0.0643422,0.206373,0,-0.0335232,0.216447,0,-0.000879407,0.222671,0,0.0332824,0.224797,0,0.0689879,0.222757,0,0.102849,0.216765,0,0.134655,0.207012,0,0.164157,0.193693,0,0.191106,0.177012,0,0.215248,0.157176,0,0.23633,0.134405,0,0.254102,0.108926,0,0.268319,0.0809784,0,0.278744,0.0508057,0,0.285152,0.0186574,0,0.287332,-0.0151923,0,-0.100526,-0.0371031,0,-0.0971722,-0.0574859,0,-0.0917492,-0.0762762,0,-0.0843888,-0.0933965,0,-0.075215,-0.108779,0,-0.0643391,-0.122365,0,-0.0518556,-0.134095,0,-0.0378413,-0.143907,0,-0.0223593,-0.151726,0,-0.00546539,-0.157459,0,0.0127827,-0.160993,0,0.0323518,-0.162204,0,0.0538306,-0.161037,0,0.0737283,-0.157607,0,0.0919391,-0.152032,0,0.108429,-0.144418,0,0.123177,-0.13485,0,0.136171,-0.123388,0,0.147386,-0.110066,0,0.156776,-0.0948997,0,0.164266,-0.0779002,0,0.169758,-0.0590901,0,0.173141,-0.0385084,0,0.174293,-0.0162773,0,0.173063,0.00362733,0,0.169489,0.0223216,0,0.16371,0.039757,0,0.155863,0.0558365,0,0.146075,0.0704626,0,0.134461,0.0835344,0,0.121131,0.0949447,0,0.106189,0.104579,0,0.0897342,0.112313,0,0.0718674,0.118016,0,0.0526899,0.121547,0,0.0323294,0.122757,0,0.0132129,0.121554,0,-0.00477958,0.118054,0,-0.0215696,0.112402,0,-0.0370644,0.104733,0,-0.051169,0.0951734,0,-0.0637834,0.0838428,0,-0.0748006,0.0708529,0,-0.0841065,0.0563121,0,-0.091579,0.0403269,0,-0.0970889,0.0230034,0,-0.1005,0.00444908,0,-0.101672,-0.0152609,0,-0.302909,0.0864436,0,-0.314349,0.0932983,0,-0.325177,0.0992366,0,-0.335467,0.104313,0,-0.345296,0.108586,0,-0.354746,0.112113,0,-0.363904,0.114955,0,-0.372864,0.117168,0,-0.381725,0.11881,0,-0.390587,0.119928,0,-0.399547,0.120569,0,-0.408464,0.120769,0,-0.426974,0.119593,0,-0.444072,0.116197,0,-0.459917,0.110691,0,-0.474456,0.103182,0,-0.487637,0.0937594,0,-0.499396,0.0824941,0,-0.509656,0.0694479,0,-0.518321,0.0546796,0,-0.52528,0.0382521,0,-0.530412,0.0202363,0,-0.533587,0.000712678,0,-0.534674,-0.0202064,0,-0.533508,-0.0414403,0,-0.530103,-0.0609691,0,-0.524592,-0.0787647,0,-0.517095,-0.094813,0,-0.507713,-0.109114,0,-0.49652,-0.12167,0,-0.483564,-0.132472,0,-0.468879,-0.141487,0,-0.452497,-0.148655,0,-0.434461,-0.153896,0,-0.414829,-0.157113,0,-0.393526,-0.158216,0,-0.38471,-0.158022,0,-0.375775,-0.157429,0,-0.366838,-0.15644,0,-0.357853,-0.155053,0,-0.348775,-0.153263,0,-0.33956,-0.151068,0,-0.330166,-0.148464,0,-0.320554,-0.145445,0,-0.310684,-0.142009,0,-0.300519,-0.138152,0,-0.29002,-0.133872,0,-0.263689,-0.122474,0,-0.263689,-0.234471,0,-0.278654,-0.240896,0,-0.288181,-0.244411,0,-0.298502,-0.247726,0,-0.309514,-0.250824,0,-0.321108,-0.253679,0,-0.333167,-0.256262,0,-0.345576,-0.258544,0,-0.358214,-0.26049,0,-0.370963,-0.262067,0,-0.383705,-0.26324,0,-0.396321,-0.263972,0,-0.408898,-0.264229,0,-0.442634,-0.262259,0,-0.47476,-0.256421,0,-0.504854,-0.246899,0,-0.532692,-0.233871,0,-0.558046,-0.217527,0,-0.580688,-0.198068,0,-0.600394,-0.175705,0,-0.616948,-0.15066,0,-0.630144,-0.123162,0,-0.63979,-0.0934396,0,-0.645702,-0.061721,0,-0.647706,-0.0282805,0,-0.645877,0.00875291,0,-0.64046,0.0434163,0,-0.631546,0.0756228,0,-0.619229,0.105204,0,-0.603612,0.131973,0,-0.584817,0.155734,0,-0.562989,0.176283,0,-0.538298,0.193423,0,-0.510936,0.206981,0,-0.481095,0.216809,0,-0.44896,0.222783,0,-0.414905,0.224784,0,-0.401589,0.224524,0,-0.389089,0.223766,0,-0.377109,0.222522,0,-0.365574,0.220808,0,-0.354411,0.218644,0,-0.343546,0.216051,0,-0.332904,0.213053,0,-0.322409,0.209676,0,-0.311981,0.205943,0,-0.301537,0.201879,0,-0.29099,0.197505,0,-0.273689,0.189994,0,-0.273689,0.0675859,0,-0.717315,-0.202823,0,-0.719216,-0.21206,0,-0.722276,-0.220825,0,-0.726406,-0.229025,0,-0.731516,-0.236574,0,-0.737521,-0.243392,0,-0.744338,-0.249396,0,-0.751887,-0.254507,0,-0.760087,-0.258637,0,-0.768853,-0.261697,0,-0.77809,-0.263597,0,-0.78769,-0.264248,0,-0.79729,-0.263597,0,-0.806527,-0.261697,0,-0.815292,-0.258637,0,-0.823492,-0.254507,0,-0.831041,-0.249396,0,-0.837859,-0.243392,0,-0.843863,-0.236574,0,-0.848974,-0.229025,0,-0.853104,-0.220825,0,-0.856164,-0.21206,0,-0.858064,-0.202823,0,-0.858715,-0.193223,0,-0.858064,-0.183623,0,-0.856164,-0.174386,0,-0.853104,-0.16562,0,-0.848974,-0.15742,0,-0.843863,-0.149871,0,-0.837859,-0.143054,0,-0.831041,-0.137049,0,-0.823492,-0.131939,0,-0.815292,-0.127809,0,-0.806527,-0.124748,0,-0.79729,-0.122848,0,-0.78769,-0.122197,0,-0.77809,-0.122848,0,-0.768853,-0.124748,0,-0.760087,-0.127809,0,-0.751887,-0.131939,0,-0.744338,-0.137049,0,-0.737521,-0.143054,0,-0.731516,-0.149871,0,-0.726406,-0.15742,0,-0.722276,-0.16562,0,-0.719215,-0.174386,0,-0.717315,-0.183623,0,-0.716664,-0.193223,0,0.471311,0.171619,-0.2,0.46429,0.164867,-0.2,0.475974,0.175197,-0.2,0.4876,0.184554,-0.2,0.499181,0.192941,-0.2,0.51073,0.200359,-0.2,0.52226,0.206807,-0.2,0.533781,0.21228,-0.2,0.545299,0.216772,-0.2,0.556816,0.220275,-0.2,0.568331,0.222782,-0.2,0.579833,0.224287,-0.2,0.591298,0.224788,-0.2,0.606275,0.224167,-0.2,0.620825,0.222307,-0.2,0.634928,0.21921,-0.2,0.64854,0.214883,-0.2,0.661617,0.209336,-0.199994,0.674115,0.202587,-0.199994,0.685993,0.194657,-0.199994,0.69721,0.18557,-0.2,0.707735,0.175355,-0.2,0.717538,0.164039,-0.2,0.726596,0.151647,-0.2,0.72703,0.150945,-0.2,0.727255,0.151191,-0.2,0.73785,0.161945,-0.2,0.748911,0.172238,-0.2,0.760477,0.18196,-0.2,0.772591,0.190995,-0.2,0.785291,0.199228,-0.199994,0.798613,0.206535,-0.2,0.812587,0.212791,-0.2,0.827236,0.217869,-0.2,0.84257,0.221641,-0.199994,0.858596,0.223986,-0.2,0.875404,0.224795,-0.2,0.898832,0.223266,-0.199994,0.920948,0.218714,-0.2,0.941518,0.21124,-0.2,0.960379,0.200964,-0.2,0.977376,0.188038,-0.199994,0.992367,0.172636,-0.2,1.00524,0.154939,-0.2,1.01592,0.135126,-0.2,1.02432,0.113361,-0.2,1.03039,0.0897942,-0.2,1.03408,0.0645605,-0.2,1.03531,0.0380325,-0.2,1.03531,-0.255223,-0.2,0.92431,-0.255223,-0.2,0.92431,0.0334897,-0.199994,0.923501,0.0489379,-0.2,0.921219,0.0627131,-0.2,0.917593,0.0751006,-0.2,0.912759,0.08612,-0.2,0.90684,0.0958014,-0.2,0.899942,0.104179,-0.2,0.892153,0.111284,-0.2,0.883546,0.117133,-0.2,0.874187,0.121727,-0.2,0.864142,0.12505,-0.2,0.853487,0.127073,-0.2,0.842182,0.127764,-0.2,0.835979,0.12753,-0.2,0.829445,0.12644,-0.2,0.822381,0.12447,-0.2,0.81489,0.121637,-0.2,0.807071,0.117977,-0.2,0.799018,0.113543,-0.2,0.790815,0.108393,-0.2,0.782543,0.102587,-0.2,0.774276,0.0961911,-0.199994,0.766086,0.08927,-0.2,0.758042,0.0818899,-0.199994,0.753311,0.0771958,-0.2,0.753311,-0.255223,-0.2,0.64231,-0.255223,-0.2,0.64231,0.0345391,-0.2,0.64159,0.0511566,-0.2,0.639554,0.0657175,-0.2,0.636336,0.0784949,-0.2,0.632083,0.0895539,-0.199994,0.626934,0.0989823,-0.2,0.621007,0.10689,-0.2,0.614387,0.113397,-0.199994,0.607127,0.118615,-0.2,0.599253,0.122626,-0.2,0.590793,0.125477,-0.2,0.581786,0.127187,-0.199994,0.57213,0.127768,-0.2,0.562004,0.12749,-0.2,0.552341,0.126621,-0.2,0.543243,0.125134,-0.2,0.534606,0.122993,-0.2,0.52631,0.120153,-0.2,0.518231,0.116552,-0.2,0.510251,0.112116,-0.2,0.502264,0.106762,-0.2,0.494181,0.100405,-0.199994,0.485927,0.092969,-0.199994,0.477435,0.0843849,-0.2,0.471311,0.0775638,-0.2,0.471311,-0.255223,-0.2,0.36031,-0.255223,-0.199994,0.36031,0.215778,-0.2,0.471311,0.215778,-0.2,0.28522,-0.0510593,-0.2,0.278999,-0.0848519,-0.2,0.268833,-0.116398,-0.2,0.2549,-0.14548,-0.2,0.237392,-0.171875,-0.2,0.216516,-0.195361,-0.199994,0.192496,-0.215725,-0.2,0.165562,-0.232769,-0.2,0.13595,-0.246307,-0.2,0.10389,-0.256169,-0.199994,0.0696076,-0.262198,-0.2,0.0332853,-0.264242,-0.2,-0.00170082,-0.262113,-0.2,-0.0349015,-0.255854,-0.2,-0.0660532,-0.24567,-0.2,-0.0949102,-0.231774,-0.2,-0.121227,-0.214389,-0.199994,-0.144759,-0.193746,-0.2,-0.165269,-0.170086,-0.2,-0.182527,-0.143655,-0.2,-0.196309,-0.114702,-0.2,-0.206402,-0.0834803,-0.2,-0.212601,-0.0502392,-0.2,-0.214712,-0.0151877,-0.2,-0.212512,0.0178528,-0.199994,-0.20607,0.0494578,-0.2,-0.195643,0.0793075,-0.199994,-0.181495,0.107123,-0.2,-0.163893,0.132634,-0.2,-0.143107,0.155574,-0.2,-0.119406,0.175682,-0.2,-0.0930608,0.1927,-0.2,-0.0643422,0.206373,-0.2,-0.0335232,0.216447,-0.2,-0.000879407,0.222671,-0.2,0.0332824,0.224797,-0.199994,0.0689879,0.222757,-0.199994,0.102849,0.216765,-0.2,0.134655,0.207012,-0.199994,0.164157,0.193693,-0.2,0.191106,0.177012,-0.2,0.215248,0.157176,-0.2,0.23633,0.134405,-0.2,0.254102,0.108926,-0.199994,0.268319,0.0809784,-0.2,0.278744,0.0508057,-0.2,0.285152,0.0186573,-0.2,0.287332,-0.0151924,-0.199994,-0.100526,-0.0371031,-0.2,-0.0971722,-0.0574859,-0.2,-0.0917492,-0.0762762,-0.2,-0.0843888,-0.0933965,-0.2,-0.075215,-0.108779,-0.2,-0.0643391,-0.122365,-0.2,-0.0518556,-0.134095,-0.2,-0.0378413,-0.143907,-0.2,-0.0223593,-0.151726,-0.2,-0.00546539,-0.157459,-0.2,0.0127827,-0.160993,-0.2,0.0323518,-0.162204,-0.2,0.0538306,-0.161037,-0.2,0.0737283,-0.157607,-0.2,0.0919391,-0.152032,-0.199994,0.108429,-0.144418,-0.2,0.123177,-0.13485,-0.199994,0.136171,-0.123388,-0.2,0.147386,-0.110066,-0.199994,0.156776,-0.0948997,-0.199994,0.164266,-0.0779002,-0.2,0.169758,-0.0590901,-0.2,0.173141,-0.0385084,-0.2,0.174293,-0.0162773,-0.2,0.173063,0.00362732,-0.199994,0.169489,0.0223216,-0.2,0.16371,0.0397569,-0.199994,0.155863,0.0558365,-0.2,0.146075,0.0704626,-0.2,0.134461,0.0835344,-0.2,0.121131,0.0949447,-0.2,0.106189,0.104579,-0.2,0.0897342,0.112313,-0.2,0.0718674,0.118016,-0.2,0.0526899,0.121547,-0.2,0.0323294,0.122757,-0.2,0.0132129,0.121554,-0.2,-0.00477958,0.118054,-0.2,-0.0215696,0.112402,-0.2,-0.0370644,0.104733,-0.2,-0.051169,0.0951734,-0.2,-0.0637834,0.0838427,-0.2,-0.0748006,0.0708529,-0.2,-0.0841065,0.0563121,-0.2,-0.091579,0.0403269,-0.2,-0.0970889,0.0230034,-0.2,-0.1005,0.00444908,-0.2,-0.101672,-0.015261,-0.2,-0.302909,0.0864436,-0.199994,-0.314349,0.0932982,-0.2,-0.325177,0.0992366,-0.2,-0.335467,0.104313,-0.2,-0.345296,0.108586,-0.2,-0.354746,0.112113,-0.2,-0.363904,0.114955,-0.2,-0.372864,0.117168,-0.2,-0.381725,0.11881,-0.2,-0.390587,0.119928,-0.2,-0.399547,0.120569,-0.2,-0.408464,0.120769,-0.199994,-0.426974,0.119593,-0.2,-0.444072,0.116197,-0.199994,-0.459917,0.110691,-0.2,-0.474456,0.103182,-0.2,-0.487637,0.0937594,-0.2,-0.499396,0.0824941,-0.2,-0.509656,0.0694479,-0.199994,-0.518321,0.0546796,-0.199994,-0.52528,0.0382521,-0.2,-0.530412,0.0202363,-0.199994,-0.533587,0.000712669,-0.2,-0.534674,-0.0202064,-0.199994,-0.533508,-0.0414403,-0.2,-0.530103,-0.0609691,-0.2,-0.524592,-0.0787647,-0.2,-0.517095,-0.0948131,-0.199994,-0.507713,-0.109114,-0.2,-0.49652,-0.12167,-0.2,-0.483564,-0.132472,-0.2,-0.468879,-0.141487,-0.2,-0.452497,-0.148655,-0.2,-0.434461,-0.153896,-0.199994,-0.414829,-0.157113,-0.2,-0.393526,-0.158216,-0.2,-0.38471,-0.158022,-0.2,-0.375775,-0.157429,-0.2,-0.366838,-0.15644,-0.2,-0.357853,-0.155053,-0.2,-0.348775,-0.153263,-0.2,-0.33956,-0.151068,-0.2,-0.330166,-0.148464,-0.2,-0.320554,-0.145445,-0.2,-0.310684,-0.142009,-0.2,-0.300519,-0.138152,-0.2,-0.29002,-0.133872,-0.2,-0.263689,-0.122474,-0.2,-0.263689,-0.234471,-0.2,-0.278654,-0.240896,-0.2,-0.288181,-0.244411,-0.2,-0.298502,-0.247726,-0.2,-0.309514,-0.250824,-0.2,-0.321108,-0.253679,-0.199994,-0.333167,-0.256262,-0.2,-0.345576,-0.258544,-0.2,-0.358214,-0.26049,-0.2,-0.370963,-0.262067,-0.199994,-0.383705,-0.26324,-0.2,-0.396321,-0.263972,-0.2,-0.408898,-0.264229,-0.2,-0.442634,-0.262259,-0.2,-0.47476,-0.256421,-0.2,-0.504854,-0.246899,-0.2,-0.532692,-0.233871,-0.2,-0.558046,-0.217527,-0.199994,-0.580688,-0.198068,-0.2,-0.600394,-0.175705,-0.2,-0.616948,-0.15066,-0.199994,-0.630144,-0.123162,-0.199994,-0.63979,-0.0934396,-0.2,-0.645702,-0.061721,-0.2,-0.647706,-0.0282805,-0.199994,-0.645877,0.0087529,-0.2,-0.64046,0.0434163,-0.2,-0.631546,0.0756228,-0.2,-0.619229,0.105204,-0.2,-0.603612,0.131973,-0.2,-0.584817,0.155734,-0.2,-0.562989,0.176283,-0.2,-0.538298,0.193423,-0.2,-0.510936,0.206981,-0.2,-0.481095,0.216809,-0.2,-0.44896,0.222783,-0.2,-0.414905,0.224784,-0.2,-0.401589,0.224524,-0.2,-0.389089,0.223766,-0.199994,-0.377109,0.222522,-0.2,-0.365574,0.220808,-0.2,-0.354411,0.218644,-0.2,-0.343546,0.216051,-0.2,-0.332904,0.213053,-0.199994,-0.322409,0.209676,-0.2,-0.311981,0.205943,-0.2,-0.301537,0.201879,-0.2,-0.29099,0.197505,-0.199994,-0.273689,0.189994,-0.2,-0.273689,0.0675859,-0.2,-0.717315,-0.202823,-0.2,-0.719216,-0.21206,-0.2,-0.722276,-0.220825,-0.2,-0.726406,-0.229025,-0.2,-0.731516,-0.236574,-0.2,-0.737521,-0.243392,-0.199994,-0.744338,-0.249396,-0.199994,-0.751887,-0.254507,-0.2,-0.760087,-0.258637,-0.199994,-0.768853,-0.261697,-0.2,-0.77809,-0.263597,-0.2,-0.78769,-0.264248,-0.2,-0.79729,-0.263597,-0.199994,-0.806527,-0.261697,-0.2,-0.815292,-0.258637,-0.2,-0.823492,-0.254507,-0.2,-0.831041,-0.249396,-0.2,-0.837859,-0.243392,-0.199994,-0.843863,-0.236574,-0.2,-0.848974,-0.229025,-0.2,-0.853104,-0.220825,-0.199994,-0.856164,-0.21206,-0.2,-0.858064,-0.202823,-0.2,-0.858715,-0.193223,-0.2,-0.858064,-0.183623,-0.199994,-0.856164,-0.174386,-0.2,-0.853104,-0.16562,-0.2,-0.848974,-0.15742,-0.2,-0.843863,-0.149871,-0.2,-0.837859,-0.143054,-0.199994,-0.831041,-0.137049,-0.2,-0.823492,-0.131939,-0.2,-0.815292,-0.127809,-0.2,-0.806527,-0.124748,-0.2,-0.79729,-0.122848,-0.2,-0.78769,-0.122197,-0.2,-0.77809,-0.122848,-0.2,-0.768853,-0.124748,-0.2,-0.760087,-0.127809,-0.2,-0.751887,-0.131939,-0.2,-0.744338,-0.137049,-0.2,-0.737521,-0.143054,-0.2,-0.731516,-0.149871,-0.2,-0.726406,-0.15742,-0.2,-0.722276,-0.16562,-0.2,-0.719215,-0.174386,-0.2,-0.717315,-0.183623,-0.2,-0.716664,-0.193223,-0.199994],
			"faces"    : [34,35,37,36,0,0,1,2,34,11,13,12,0,3,4,5,34,10,13,11,0,6,4,3,34,10,14,13,0,6,7,4,34,34,37,35,0,8,1,0,34,34,38,37,0,8,9,1,34,9,14,10,0,10,7,6,34,9,15,14,0,10,11,7,34,33,38,34,0,12,9,8,34,8,15,9,0,13,11,10,34,8,16,15,0,13,14,11,34,33,39,38,0,12,15,9,34,32,39,33,0,16,15,12,34,7,16,8,0,17,14,13,34,104,106,105,0,18,19,20,34,104,1,106,0,18,21,19,34,1,0,106,0,21,22,19,34,7,17,16,0,17,23,14,34,31,39,32,0,24,15,16,34,6,17,7,0,25,23,17,34,31,40,39,0,24,26,15,34,6,18,17,0,25,27,23,34,5,18,6,0,28,27,25,34,30,40,31,0,29,26,24,34,5,19,18,0,28,30,27,34,30,41,40,0,29,31,26,34,4,19,5,0,32,30,28,34,29,41,30,0,33,31,29,34,4,20,19,0,32,34,30,34,3,20,4,0,35,34,32,34,28,41,29,0,36,31,33,34,28,42,41,0,36,37,31,34,3,21,20,0,35,38,34,34,2,21,3,0,39,38,35,34,27,42,28,0,40,37,36,34,2,22,21,0,39,41,38,34,1,22,2,0,21,41,39,34,27,43,42,0,40,42,37,34,26,43,27,0,43,42,40,34,104,102,1,0,18,44,21,34,102,101,1,0,44,45,21,34,101,100,1,0,45,46,21,34,100,99,1,0,46,47,21,34,99,98,1,0,47,48,21,34,98,97,1,0,48,49,21,34,97,96,1,0,49,50,21,34,96,95,1,0,50,51,21,34,95,94,1,0,51,52,21,34,94,93,1,0,52,53,21,34,93,22,1,0,53,41,21,34,93,92,22,0,53,54,41,34,92,23,22,0,54,55,41,34,25,43,26,0,56,42,43,34,25,44,43,0,56,57,42,34,92,24,23,0,54,58,55,34,24,44,25,0,58,57,56,34,92,91,24,0,54,59,58,34,91,90,24,0,59,60,58,34,90,44,24,0,60,57,58,34,90,63,44,0,60,61,57,34,63,62,44,0,61,62,57,34,62,45,44,0,62,63,57,34,89,63,90,0,64,61,60,34,89,64,63,0,64,65,61,34,89,65,64,0,64,66,65,34,88,65,89,0,67,66,64,34,61,45,62,0,68,63,62,34,88,66,65,0,67,69,66,34,87,66,88,0,70,69,67,34,60,45,61,0,71,63,68,34,87,67,66,0,70,72,69,34,86,67,87,0,73,72,70,34,59,45,60,0,74,63,71,34,86,68,67,0,73,75,72,34,85,68,86,0,76,75,73,34,85,69,68,0,76,77,75,34,58,45,59,0,78,63,74,34,85,70,69,0,76,79,77,34,84,70,85,0,80,79,76,34,58,46,45,0,78,81,63,34,57,46,58,0,82,81,78,34,84,71,70,0,80,83,79,34,83,71,84,0,84,83,80,34,56,46,57,0,85,81,82,34,83,72,71,0,84,86,83,34,82,72,83,0,87,86,84,34,82,73,72,0,87,88,86,34,55,46,56,0,89,81,85,34,55,47,46,0,89,90,81,34,81,73,82,0,91,88,87,34,81,74,73,0,91,92,88,34,54,47,55,0,93,90,89,34,81,75,74,0,91,94,92,34,80,75,81,0,95,94,91,34,104,103,102,0,18,96,44,34,80,76,75,0,95,96,94,34,53,47,54,0,97,90,93,34,79,76,80,0,98,96,95,34,53,48,47,0,97,99,90,34,52,48,53,0,100,99,97,34,78,76,79,0,101,96,98,34,51,48,52,0,102,99,100,34,51,49,48,0,102,96,99,34,77,76,78,0,18,96,101,34,50,49,51,0,18,96,102,34,141,143,142,0,103,104,105,34,141,144,143,0,103,106,104,34,140,144,141,0,107,106,103,34,140,145,144,0,107,108,106,34,139,145,140,0,109,108,107,34,139,146,145,0,109,110,108,34,138,146,139,0,111,110,109,34,138,147,146,0,111,112,110,34,137,147,138,0,113,112,111,34,137,148,147,0,113,114,112,34,136,148,137,0,115,114,113,34,136,149,148,0,115,116,114,34,135,149,136,0,117,116,115,34,135,190,149,0,117,118,116,34,190,189,149,0,118,119,116,34,189,150,149,0,119,120,116,34,134,191,135,0,121,122,117,34,191,190,135,0,122,118,117,34,134,192,191,0,121,123,122,34,188,150,189,0,124,120,119,34,134,193,192,0,121,125,123,34,187,150,188,0,126,120,124,34,134,194,193,0,121,127,125,34,186,150,187,0,128,120,126,34,186,151,150,0,128,129,120,34,133,194,134,0,130,127,121,34,133,195,194,0,130,131,127,34,185,151,186,0,132,129,128,34,133,196,195,0,130,133,131,34,184,151,185,0,134,129,132,34,133,197,196,0,130,135,133,34,183,151,184,0,136,129,134,34,183,152,151,0,136,137,129,34,132,197,133,0,138,135,130,34,132,198,197,0,138,139,135,34,182,152,183,0,140,137,136,34,132,199,198,0,138,141,139,34,181,152,182,0,142,137,140,34,181,153,152,0,142,143,137,34,131,199,132,0,144,141,138,34,131,200,199,0,144,145,141,34,180,153,181,0,146,143,142,34,131,201,200,0,144,147,145,34,179,153,180,0,148,143,146,34,179,154,153,0,148,149,143,34,130,201,131,0,150,147,144,34,130,202,201,0,150,151,147,34,178,154,179,0,152,149,148,34,129,202,130,0,153,151,150,34,178,107,154,0,152,154,149,34,129,155,202,0,153,155,151,34,177,107,178,0,156,154,152,34,129,156,155,0,153,157,155,34,176,107,177,0,158,154,156,34,128,156,129,0,159,157,153,34,176,108,107,0,158,160,154,34,128,157,156,0,159,161,157,34,175,108,176,0,162,160,158,34,128,158,157,0,159,163,161,34,174,108,175,0,164,160,162,34,127,158,128,0,165,163,159,34,174,109,108,0,164,166,160,34,127,159,158,0,165,167,163,34,173,109,174,0,168,166,164,34,127,160,159,0,165,169,167,34,172,109,173,0,170,166,168,34,126,160,127,0,171,169,165,34,172,110,109,0,170,172,166,34,126,161,160,0,171,173,169,34,171,110,172,0,174,172,170,34,126,162,161,0,171,175,173,34,170,110,171,0,176,172,174,34,125,162,126,0,177,175,171,34,125,163,162,0,177,178,175,34,169,110,170,0,179,172,176,34,169,111,110,0,179,180,172,34,125,164,163,0,177,181,178,34,168,111,169,0,182,180,179,34,125,165,164,0,177,183,181,34,167,111,168,0,184,180,182,34,125,166,165,0,177,185,183,34,166,111,167,0,185,180,184,34,125,111,166,0,177,180,185,34,124,111,125,0,186,180,177,34,124,112,111,0,186,187,180,34,123,112,124,0,188,187,186,34,123,113,112,0,188,189,187,34,122,113,123,0,190,189,188,34,122,114,113,0,190,191,189,34,121,114,122,0,192,191,190,34,121,115,114,0,192,193,191,34,120,115,121,0,194,193,192,34,120,116,115,0,194,195,193,34,119,116,120,0,196,195,194,34,119,117,116,0,196,197,195,34,118,117,119,0,198,197,196,34,286,288,287,0,199,200,201,34,286,289,288,0,199,202,200,34,286,290,289,0,199,203,202,34,285,290,286,0,204,203,199,34,285,291,290,0,204,205,203,34,285,292,291,0,204,206,205,34,285,293,292,0,204,207,206,34,284,293,285,0,208,207,204,34,284,294,293,0,208,209,207,34,284,295,294,0,208,210,209,34,284,296,295,0,208,211,210,34,283,296,284,0,212,211,208,34,283,297,296,0,212,213,211,34,283,298,297,0,212,214,213,34,283,299,298,0,212,215,214,34,282,299,283,0,216,215,212,34,282,209,299,0,216,217,215,34,209,208,299,0,217,218,215,34,208,207,299,0,218,219,215,34,207,206,299,0,219,220,215,34,206,205,299,0,220,221,215,34,205,204,299,0,221,222,215,34,204,203,299,0,222,223,215,34,203,300,299,0,223,224,215,34,281,211,282,0,225,226,216,34,211,210,282,0,226,227,216,34,210,209,282,0,227,217,216,34,280,213,281,0,228,229,225,34,213,212,281,0,229,230,225,34,212,211,281,0,230,226,225,34,279,215,280,0,231,232,228,34,215,214,280,0,232,233,228,34,214,213,280,0,233,229,228,34,279,216,215,0,231,234,232,34,279,217,216,0,231,235,234,34,279,218,217,0,231,236,235,34,278,218,279,0,237,236,231,34,278,219,218,0,237,238,236,34,278,220,219,0,237,239,238,34,278,221,220,0,237,240,239,34,277,221,278,0,241,240,237,34,277,222,221,0,241,242,240,34,277,223,222,0,241,243,242,34,276,223,277,0,244,243,241,34,276,224,223,0,244,245,243,34,276,225,224,0,244,246,245,34,275,225,276,0,247,246,244,34,275,226,225,0,247,248,246,34,275,227,226,0,247,249,248,34,274,227,275,0,250,249,247,34,274,228,227,0,250,251,249,34,274,229,228,0,250,252,251,34,273,229,274,0,253,252,250,34,273,230,229,0,253,254,252,34,272,230,273,0,255,254,253,34,272,231,230,0,255,256,254,34,272,232,231,0,255,257,256,34,272,233,232,0,255,258,257,34,249,251,250,0,259,260,261,34,271,233,272,0,262,258,255,34,271,234,233,0,262,263,258,34,248,251,249,0,264,260,259,34,247,251,248,0,265,260,264,34,271,235,234,0,262,266,263,34,246,251,247,0,267,260,265,34,245,251,246,0,268,260,267,34,244,251,245,0,269,260,268,34,271,236,235,0,262,270,266,34,270,236,271,0,271,270,262,34,243,251,244,0,272,260,269,34,242,251,243,0,273,260,272,34,270,237,236,0,271,274,270,34,241,251,242,0,275,260,273,34,240,251,241,0,276,260,275,34,270,238,237,0,271,277,274,34,239,251,240,0,278,260,276,34,238,251,239,0,277,260,278,34,270,251,238,0,271,260,277,34,269,251,270,0,279,260,271,34,268,251,269,0,280,260,279,34,267,251,268,0,281,260,280,34,266,251,267,0,282,260,281,34,266,252,251,0,282,283,260,34,266,253,252,0,282,284,283,34,266,254,253,0,282,285,284,34,265,254,266,0,286,285,282,34,265,255,254,0,286,287,285,34,265,256,255,0,286,288,287,34,265,257,256,0,286,289,288,34,265,258,257,0,286,290,289,34,264,258,265,0,291,290,286,34,264,259,258,0,291,292,290,34,264,260,259,0,291,293,292,34,264,261,260,0,291,294,293,34,263,261,264,0,295,294,291,34,263,262,261,0,295,296,294,34,335,337,336,0,297,298,299,34,334,337,335,0,300,298,297,34,334,338,337,0,300,301,298,34,333,338,334,0,302,301,300,34,333,339,338,0,302,303,301,34,332,339,333,0,304,303,302,34,332,340,339,0,304,305,303,34,331,340,332,0,306,305,304,34,331,341,340,0,306,307,305,34,330,341,331,0,308,307,306,34,330,342,341,0,308,309,307,34,329,342,330,0,310,309,308,34,329,343,342,0,310,311,309,34,328,343,329,0,312,311,310,34,328,344,343,0,312,313,311,34,327,344,328,0,314,313,312,34,327,345,344,0,314,315,313,34,327,346,345,0,314,316,315,34,326,346,327,0,317,316,314,34,325,346,326,0,318,316,317,34,325,347,346,0,318,319,316,34,324,347,325,0,320,319,318,34,324,348,347,0,320,321,319,34,323,348,324,0,322,321,320,34,323,301,348,0,322,323,321,34,322,301,323,0,324,323,322,34,322,302,301,0,324,325,323,34,321,302,322,0,326,325,324,34,321,303,302,0,326,327,325,34,320,303,321,0,328,327,326,34,320,304,303,0,328,329,327,34,319,304,320,0,330,329,328,34,319,305,304,0,330,331,329,34,318,305,319,0,332,331,330,34,318,306,305,0,332,333,331,34,317,306,318,0,334,333,332,34,317,307,306,0,334,335,333,34,316,307,317,0,336,335,334,34,316,308,307,0,336,337,335,34,315,308,316,0,338,337,336,34,315,309,308,0,338,339,337,34,314,309,315,0,340,339,338,34,314,310,309,0,340,341,339,34,313,310,314,0,342,341,340,34,313,311,310,0,342,343,341,34,312,311,313,0,344,343,342,34,385,386,384,0,345,346,347,34,361,362,360,0,348,349,350,34,360,362,359,0,350,349,351,34,362,363,359,0,349,352,351,34,384,386,383,0,347,346,353,34,386,387,383,0,346,354,353,34,359,363,358,0,351,352,355,34,363,364,358,0,352,356,355,34,383,387,382,0,353,354,357,34,358,364,357,0,355,356,358,34,364,365,357,0,356,359,358,34,387,388,382,0,354,360,357,34,382,388,381,0,357,360,361,34,357,365,356,0,358,359,362,34,454,455,453,0,363,364,365,34,455,350,453,0,364,366,365,34,455,349,350,0,364,367,366,34,365,366,356,0,359,368,362,34,381,388,380,0,361,360,369,34,356,366,355,0,362,368,370,34,388,389,380,0,360,371,369,34,366,367,355,0,368,372,370,34,355,367,354,0,370,372,373,34,380,389,379,0,369,371,374,34,367,368,354,0,372,375,373,34,389,390,379,0,371,376,374,34,354,368,353,0,373,375,377,34,379,390,378,0,374,376,378,34,368,369,353,0,375,379,377,34,353,369,352,0,377,379,380,34,378,390,377,0,378,376,381,34,390,391,377,0,376,382,381,34,369,370,352,0,379,383,380,34,352,370,351,0,380,383,384,34,377,391,376,0,381,382,385,34,370,371,351,0,383,386,384,34,351,371,350,0,384,386,366,34,391,392,376,0,382,387,385,34,376,392,375,0,385,387,388,34,350,451,453,0,366,389,365,34,350,450,451,0,366,390,389,34,350,449,450,0,366,391,390,34,350,448,449,0,366,392,391,34,350,447,448,0,366,393,392,34,350,446,447,0,366,394,393,34,350,445,446,0,366,395,394,34,350,444,445,0,366,396,395,34,350,443,444,0,366,397,396,34,350,442,443,0,366,398,397,34,350,371,442,0,366,386,398,34,371,441,442,0,386,399,398,34,371,372,441,0,386,400,399,34,375,392,374,0,388,387,401,34,392,393,374,0,387,402,401,34,372,373,441,0,400,403,399,34,374,393,373,0,401,402,403,34,373,440,441,0,403,404,399,34,373,439,440,0,403,405,404,34,373,393,439,0,403,402,405,34,393,412,439,0,402,406,405,34,393,411,412,0,402,407,406,34,393,394,411,0,402,408,407,34,439,412,438,0,405,406,409,34,412,413,438,0,406,410,409,34,413,414,438,0,410,411,409,34,438,414,437,0,409,411,412,34,411,394,410,0,407,408,413,34,414,415,437,0,411,414,412,34,437,415,436,0,412,414,415,34,410,394,409,0,413,408,416,34,415,416,436,0,414,417,415,34,436,416,435,0,415,417,418,34,409,394,408,0,416,408,419,34,416,417,435,0,417,420,418,34,435,417,434,0,418,420,421,34,417,418,434,0,420,422,421,34,408,394,407,0,419,408,423,34,418,419,434,0,422,424,421,34,434,419,433,0,421,424,425,34,394,395,407,0,408,426,423,34,407,395,406,0,423,426,427,34,419,420,433,0,424,428,425,34,433,420,432,0,425,428,429,34,406,395,405,0,427,426,430,34,420,421,432,0,428,431,429,34,432,421,431,0,429,431,432,34,421,422,431,0,431,433,432,34,405,395,404,0,430,426,434,34,395,396,404,0,426,435,434,34,431,422,430,0,432,433,436,34,422,423,430,0,433,437,436,34,404,396,403,0,434,435,438,34,423,424,430,0,437,439,436,34,430,424,429,0,436,439,440,34,451,452,453,0,389,441,365,34,424,425,429,0,439,442,440,34,403,396,402,0,438,435,443,34,429,425,428,0,440,442,444,34,396,397,402,0,435,445,443,34,402,397,401,0,443,445,446,34,428,425,427,0,444,442,447,34,401,397,400,0,446,445,448,34,397,398,400,0,445,441,448,34,427,425,426,0,447,442,449,34,400,398,399,0,448,441,450,34,491,492,490,0,451,452,453,34,492,493,490,0,452,454,453,34,490,493,489,0,453,454,455,34,493,494,489,0,454,456,455,34,489,494,488,0,455,456,457,34,494,495,488,0,456,458,457,34,488,495,487,0,457,458,459,34,495,496,487,0,458,460,459,34,487,496,486,0,459,460,461,34,496,497,486,0,460,462,461,34,486,497,485,0,461,462,463,34,497,498,485,0,462,464,463,34,485,498,484,0,463,464,465,34,498,539,484,0,464,466,465,34,498,538,539,0,464,467,466,34,498,499,538,0,464,468,467,34,484,540,483,0,465,469,470,34,484,539,540,0,465,466,469,34,540,541,483,0,469,471,470,34,538,499,537,0,467,468,472,34,541,542,483,0,471,473,470,34,537,499,536,0,472,468,474,34,542,543,483,0,473,475,470,34,536,499,535,0,474,468,476,34,499,500,535,0,468,477,476,34,483,543,482,0,470,475,478,34,543,544,482,0,475,479,478,34,535,500,534,0,476,477,480,34,544,545,482,0,479,481,478,34,534,500,533,0,480,477,482,34,545,546,482,0,481,483,478,34,533,500,532,0,482,477,484,34,500,501,532,0,477,485,484,34,482,546,481,0,478,483,486,34,546,547,481,0,483,487,486,34,532,501,531,0,484,485,488,34,547,548,481,0,487,489,486,34,531,501,530,0,488,485,490,34,501,502,530,0,485,491,490,34,481,548,480,0,486,489,492,34,548,549,480,0,489,493,492,34,530,502,529,0,490,491,494,34,549,550,480,0,493,495,492,34,529,502,528,0,494,491,496,34,502,503,528,0,491,497,496,34,480,550,479,0,492,495,498,34,550,551,479,0,495,499,498,34,528,503,527,0,496,497,500,34,479,551,478,0,498,499,501,34,503,456,527,0,497,502,500,34,551,504,478,0,499,503,501,34,527,456,526,0,500,502,504,34,504,505,478,0,503,505,501,34,526,456,525,0,504,502,506,34,478,505,477,0,501,505,507,34,456,457,525,0,502,508,506,34,505,506,477,0,505,509,507,34,525,457,524,0,506,508,510,34,506,507,477,0,509,511,507,34,524,457,523,0,510,508,512,34,477,507,476,0,507,511,513,34,457,458,523,0,508,514,512,34,507,508,476,0,511,515,513,34,523,458,522,0,512,514,516,34,508,509,476,0,515,517,513,34,522,458,521,0,516,514,518,34,476,509,475,0,513,517,519,34,458,459,521,0,514,520,518,34,509,510,475,0,517,521,519,34,521,459,520,0,518,520,522,34,510,511,475,0,521,523,519,34,520,459,519,0,522,520,524,34,475,511,474,0,519,523,525,34,511,512,474,0,523,526,525,34,519,459,518,0,524,520,527,34,459,460,518,0,520,528,527,34,512,513,474,0,526,529,525,34,518,460,517,0,527,528,530,34,513,514,474,0,529,531,525,34,517,460,516,0,530,528,532,34,514,515,474,0,531,533,525,34,516,460,515,0,532,528,533,34,515,460,474,0,533,528,525,34,474,460,473,0,525,528,534,34,460,461,473,0,528,535,534,34,473,461,472,0,534,535,536,34,461,462,472,0,535,537,536,34,472,462,471,0,536,537,538,34,462,463,471,0,537,539,538,34,471,463,470,0,538,539,540,34,463,464,470,0,539,541,540,34,470,464,469,0,540,541,542,34,464,465,469,0,541,543,542,34,469,465,468,0,542,543,544,34,465,466,468,0,543,545,544,34,468,466,467,0,544,545,546,34,636,637,635,0,547,548,549,34,637,638,635,0,548,550,549,34,638,639,635,0,550,551,549,34,635,639,634,0,549,551,552,34,639,640,634,0,551,553,552,34,640,641,634,0,553,554,552,34,641,642,634,0,554,555,552,34,634,642,633,0,552,555,556,34,642,643,633,0,555,557,556,34,643,644,633,0,557,558,556,34,644,645,633,0,558,559,556,34,633,645,632,0,556,559,560,34,645,646,632,0,559,561,560,34,646,647,632,0,561,562,560,34,647,648,632,0,562,563,560,34,632,648,631,0,560,563,564,34,648,558,631,0,563,565,564,34,648,557,558,0,563,566,565,34,648,556,557,0,563,567,566,34,648,555,556,0,563,568,567,34,648,554,555,0,563,569,568,34,648,553,554,0,563,570,569,34,648,552,553,0,563,571,570,34,648,649,552,0,563,572,571,34,631,560,630,0,564,573,574,34,631,559,560,0,564,575,573,34,631,558,559,0,564,565,575,34,630,562,629,0,574,576,577,34,630,561,562,0,574,578,576,34,630,560,561,0,574,573,578,34,629,564,628,0,577,579,580,34,629,563,564,0,577,581,579,34,629,562,563,0,577,576,581,34,564,565,628,0,579,582,580,34,565,566,628,0,582,583,580,34,566,567,628,0,583,584,580,34,628,567,627,0,580,584,585,34,567,568,627,0,584,586,585,34,568,569,627,0,586,587,585,34,569,570,627,0,587,588,585,34,627,570,626,0,585,588,589,34,570,571,626,0,588,590,589,34,571,572,626,0,590,591,589,34,626,572,625,0,589,591,592,34,572,573,625,0,591,593,592,34,573,574,625,0,593,594,592,34,625,574,624,0,592,594,595,34,574,575,624,0,594,596,595,34,575,576,624,0,596,597,595,34,624,576,623,0,595,597,598,34,576,577,623,0,597,599,598,34,577,578,623,0,599,600,598,34,623,578,622,0,598,600,601,34,578,579,622,0,600,602,601,34,622,579,621,0,601,602,603,34,579,580,621,0,602,604,603,34,580,581,621,0,604,605,603,34,581,582,621,0,605,606,603,34,599,600,598,0,607,608,609,34,621,582,620,0,603,606,610,34,582,583,620,0,606,611,610,34,598,600,597,0,609,608,612,34,597,600,596,0,612,608,613,34,583,584,620,0,611,614,610,34,596,600,595,0,613,608,615,34,595,600,594,0,615,608,616,34,594,600,593,0,616,608,617,34,584,585,620,0,614,618,610,34,620,585,619,0,610,618,619,34,593,600,592,0,617,608,620,34,592,600,591,0,620,608,621,34,585,586,619,0,618,622,619,34,591,600,590,0,621,608,623,34,590,600,589,0,623,608,624,34,586,587,619,0,622,625,619,34,589,600,588,0,624,608,626,34,588,600,587,0,626,608,625,34,587,600,619,0,625,608,619,34,619,600,618,0,619,608,627,34,618,600,617,0,627,608,628,34,617,600,616,0,628,608,629,34,616,600,615,0,629,608,630,34,600,601,615,0,608,631,630,34,601,602,615,0,631,632,630,34,602,603,615,0,632,633,630,34,615,603,614,0,630,633,634,34,603,604,614,0,633,635,634,34,604,605,614,0,635,636,634,34,605,606,614,0,636,637,634,34,606,607,614,0,637,638,634,34,614,607,613,0,634,638,639,34,607,608,613,0,638,640,639,34,608,609,613,0,640,641,639,34,609,610,613,0,641,642,639,34,613,610,612,0,639,642,643,34,610,611,612,0,642,644,643,34,685,686,684,0,645,646,647,34,684,686,683,0,647,646,648,34,686,687,683,0,646,649,648,34,683,687,682,0,648,649,650,34,687,688,682,0,649,651,650,34,682,688,681,0,650,651,652,34,688,689,681,0,651,653,652,34,681,689,680,0,652,653,654,34,689,690,680,0,653,655,654,34,680,690,679,0,654,655,656,34,690,691,679,0,655,657,656,34,679,691,678,0,656,657,658,34,691,692,678,0,657,659,658,34,678,692,677,0,658,659,660,34,692,693,677,0,659,661,660,34,677,693,676,0,660,661,662,34,693,694,676,0,661,663,662,34,694,695,676,0,663,664,662,34,676,695,675,0,662,664,665,34,675,695,674,0,665,664,666,34,695,696,674,0,664,667,666,34,674,696,673,0,666,667,668,34,696,697,673,0,667,669,668,34,673,697,672,0,668,669,670,34,697,650,672,0,669,671,670,34,672,650,671,0,670,671,672,34,650,651,671,0,671,673,672,34,671,651,670,0,672,673,674,34,651,652,670,0,673,675,674,34,670,652,669,0,674,675,676,34,652,653,669,0,675,677,676,34,669,653,668,0,676,677,678,34,653,654,668,0,677,679,678,34,668,654,667,0,678,679,680,34,654,655,667,0,679,681,680,34,667,655,666,0,680,681,682,34,655,656,666,0,681,683,682,34,666,656,665,0,682,683,684,34,656,657,665,0,683,685,684,34,665,657,664,0,684,685,686,34,657,658,664,0,685,687,686,34,664,658,663,0,686,687,688,34,658,659,663,0,687,689,688,34,663,659,662,0,688,689,690,34,659,660,662,0,689,691,690,34,662,660,661,0,690,691,692,35,84,85,434,433,0,80,76,421,425,35,345,346,695,694,0,315,316,664,663,35,167,168,517,516,0,184,182,530,532,35,337,338,687,686,0,298,301,649,646,35,262,263,612,611,0,296,295,643,644,35,92,93,442,441,0,54,53,398,399,35,159,160,509,508,0,167,169,517,515,35,76,77,426,425,0,96,18,449,442,35,175,176,525,524,0,162,158,506,510,35,68,69,418,417,0,75,77,422,420,35,183,184,533,532,0,136,134,482,484,35,321,322,671,670,0,326,324,672,674,35,143,144,493,492,0,104,106,454,452,35,329,330,679,678,0,310,308,656,658,35,151,152,501,500,0,129,137,485,477,35,98,99,448,447,0,48,47,392,393,35,135,136,485,484,0,117,115,463,465,35,114,115,464,463,0,191,193,541,539,35,122,123,472,471,0,190,188,536,538,35,297,298,647,646,0,213,214,562,561,35,46,47,396,395,0,81,90,435,426,35,219,220,569,568,0,238,239,587,586,35,38,39,388,387,0,9,15,360,354,35,211,212,561,560,0,226,230,578,573,35,203,204,553,552,0,223,222,570,571,35,54,55,404,403,0,93,89,434,438,35,289,290,639,638,0,202,203,551,550,35,313,314,663,662,0,342,340,688,690,35,305,306,655,654,0,331,333,681,679,35,62,63,412,411,0,62,61,406,407,35,235,236,585,584,0,266,270,618,614,35,191,192,541,540,0,122,123,471,469,35,195,196,545,544,0,131,133,481,479,35,16,17,366,365,0,14,23,368,359,35,281,282,631,630,0,225,216,564,574,35,24,25,374,373,0,58,56,401,403,35,273,274,623,622,0,253,250,598,601,35,265,266,615,614,0,286,282,630,634,35,8,9,358,357,0,13,10,355,358,35,227,228,577,576,0,249,251,599,597,35,251,252,601,600,0,260,283,631,608,35,243,244,593,592,0,272,269,617,620,35,0,1,350,349,0,22,21,366,367,35,172,173,522,521,0,170,168,516,518,35,83,84,433,432,0,84,80,425,429,35,344,345,694,693,0,313,315,663,661,35,257,258,607,606,0,289,290,638,637,35,336,337,686,685,0,299,298,646,645,35,91,92,441,440,0,59,54,399,404,35,158,159,508,507,0,163,167,515,511,35,164,165,514,513,0,181,183,531,529,35,75,76,425,424,0,94,96,442,439,35,188,189,538,537,0,124,119,467,472,35,67,68,417,416,0,72,75,420,417,35,180,181,530,529,0,146,142,490,494,35,320,321,670,669,0,328,326,674,676,35,107,108,457,456,0,154,160,508,502,35,142,143,492,491,0,105,104,452,451,35,99,100,449,448,0,47,46,391,392,35,328,329,678,677,0,312,310,658,660,35,150,151,500,499,0,120,129,477,468,35,115,116,465,464,0,193,195,543,541,35,134,135,484,483,0,121,117,465,470,35,123,124,473,472,0,188,186,534,536,35,298,299,648,647,0,214,215,563,562,35,47,48,397,396,0,90,99,445,435,35,206,207,556,555,0,220,219,567,568,35,39,40,389,388,0,15,26,371,360,35,214,215,564,563,0,233,232,579,581,35,55,56,405,404,0,89,85,430,434,35,284,285,634,633,0,208,204,552,556,35,290,291,640,639,0,203,205,553,551,35,198,199,548,547,0,139,141,489,487,35,314,315,664,663,0,340,338,686,688,35,306,307,656,655,0,333,335,683,681,35,63,64,413,412,0,61,65,410,406,35,236,237,586,585,0,270,274,622,618,35,276,277,626,625,0,244,241,589,592,35,23,24,373,372,0,55,58,403,400,35,268,269,618,617,0,280,279,627,628,35,31,32,381,380,0,24,16,361,369,35,222,223,572,571,0,242,243,591,590,35,228,229,578,577,0,251,252,600,599,35,15,16,365,364,0,11,14,359,356,35,252,253,602,601,0,283,284,632,631,35,7,8,357,356,0,17,13,358,362,35,244,245,594,593,0,269,268,616,617,35,86,87,436,435,0,73,70,415,418,35,343,344,693,692,0,311,313,661,659,35,254,255,604,603,0,285,287,635,633,35,169,170,519,518,0,179,176,524,527,35,335,336,685,684,0,297,299,645,647,35,260,261,610,609,0,293,294,642,641,35,94,95,444,443,0,52,51,396,397,35,161,162,511,510,0,173,175,523,521,35,78,79,428,427,0,101,98,444,447,35,177,178,527,526,0,156,152,500,504,35,70,71,420,419,0,79,83,428,424,35,185,186,535,534,0,132,128,476,480,35,108,109,458,457,0,160,166,514,508,35,145,146,495,494,0,108,110,458,456,35,100,101,450,449,0,46,45,390,391,35,327,328,677,676,0,314,312,660,662,35,153,154,503,502,0,143,149,497,491,35,116,117,466,465,0,195,197,545,543,35,137,138,487,486,0,113,111,459,461,35,124,125,474,473,0,186,177,525,534,35,299,300,649,648,0,215,224,572,563,35,129,130,479,478,0,153,150,498,501,35,44,45,394,393,0,57,63,408,402,35,217,218,567,566,0,235,236,584,583,35,36,37,386,385,0,2,1,346,345,35,209,210,559,558,0,217,227,575,565,35,201,202,551,550,0,147,151,499,495,35,52,53,402,401,0,100,97,443,446,35,291,292,641,640,0,205,206,554,553,35,315,316,665,664,0,338,336,684,686,35,307,308,657,656,0,335,337,685,683,35,60,61,410,409,0,71,68,413,416,35,233,234,583,582,0,258,263,611,606,35,22,23,372,371,0,41,55,400,386,35,193,194,543,542,0,125,127,475,473,35,283,284,633,632,0,212,208,556,560,35,275,276,625,624,0,247,244,592,595,35,30,31,380,379,0,29,24,369,374,35,267,268,617,616,0,281,280,628,629,35,225,226,575,574,0,246,248,596,594,35,14,15,364,363,0,7,11,356,352,35,249,250,599,598,0,259,261,607,609,35,6,7,356,355,0,25,17,362,370,35,241,242,591,590,0,275,273,621,623,35,255,256,605,604,0,287,288,636,635,35,170,171,520,519,0,176,174,522,524,35,259,260,609,608,0,292,293,641,640,35,346,347,696,695,0,316,319,667,664,35,81,82,431,430,0,91,87,432,436,35,338,339,688,687,0,301,303,651,649,35,89,90,439,438,0,64,60,405,409,35,330,331,680,679,0,308,306,654,656,35,162,163,512,511,0,175,178,526,523,35,73,74,423,422,0,88,92,437,433,35,186,187,536,535,0,128,126,474,476,35,178,179,528,527,0,152,148,496,500,35,148,149,498,497,0,114,116,464,462,35,65,66,415,414,0,66,69,414,411,35,322,323,672,671,0,324,322,670,672,35,105,106,455,454,0,20,19,364,363,35,156,157,506,505,0,157,161,509,505,35,97,98,447,446,0,49,48,393,394,35,140,141,490,489,0,107,103,453,455,35,113,114,463,462,0,189,191,539,537,35,132,133,482,481,0,138,130,478,486,35,121,122,471,470,0,192,190,538,540,35,41,42,391,390,0,31,37,382,376,35,208,209,558,557,0,218,217,565,566,35,216,217,566,565,0,234,235,583,582,35,33,34,383,382,0,12,8,353,357,35,288,289,638,637,0,200,202,550,548,35,312,313,662,661,0,344,342,690,692,35,200,201,550,549,0,145,147,495,493,35,49,50,399,398,0,96,18,450,441,35,304,305,654,653,0,329,331,679,677,35,57,58,407,406,0,82,78,423,427,35,296,297,646,645,0,211,213,561,559,35,192,193,542,541,0,123,125,473,471,35,17,18,367,366,0,23,27,372,368,35,282,283,632,631,0,216,212,560,564,35,25,26,375,374,0,56,43,388,401,35,274,275,624,623,0,250,247,595,598,35,266,267,616,615,0,282,281,629,630,35,246,247,596,595,0,267,265,613,615,35,9,10,359,358,0,10,6,351,355,35,230,231,580,579,0,254,256,604,602,35,238,239,588,587,0,277,278,626,625,35,1,2,351,350,0,21,39,384,366,35,341,342,691,690,0,307,309,657,655,35,171,172,521,520,0,174,170,518,522,35,258,259,608,607,0,290,292,640,638,35,80,81,430,429,0,95,91,436,440,35,333,334,683,682,0,302,300,648,650,35,88,89,438,437,0,67,64,409,412,35,154,107,456,503,0,149,154,502,497,35,163,164,513,512,0,178,181,529,526,35,72,73,422,421,0,86,88,433,431,35,187,188,537,536,0,126,124,472,474,35,179,180,529,528,0,148,146,494,496,35,64,65,414,413,0,65,66,411,410,35,317,318,667,666,0,334,332,680,682,35,110,111,460,459,0,172,180,528,520,35,325,326,675,674,0,318,317,665,666,35,155,156,505,504,0,155,157,505,503,35,102,103,452,451,0,44,96,441,389,35,147,148,497,496,0,112,114,462,460,35,118,119,468,467,0,198,196,544,546,35,139,140,489,488,0,109,107,455,457,35,126,127,476,475,0,171,165,513,519,35,127,128,477,476,0,165,159,507,513,35,42,43,392,391,0,37,42,387,382,35,131,132,481,480,0,144,138,486,492,35,207,208,557,556,0,219,218,566,567,35,215,216,565,564,0,232,234,582,579,35,34,35,384,383,0,8,0,347,353,35,309,310,659,658,0,339,341,689,687,35,285,286,635,634,0,204,199,549,552,35,199,200,549,548,0,141,145,493,489,35,50,51,400,399,0,18,102,448,450,35,293,294,643,642,0,207,209,557,555,35,58,59,408,407,0,78,74,419,423,35,301,302,651,650,0,323,325,673,671,35,277,278,627,626,0,241,237,585,589,35,20,21,370,369,0,34,38,383,379,35,231,232,581,580,0,256,257,605,604,35,269,270,619,618,0,279,271,619,627,35,28,29,378,377,0,36,33,378,381,35,223,224,573,572,0,243,245,593,591,35,12,13,362,361,0,5,4,349,348,35,239,240,589,588,0,278,276,624,626,35,4,5,354,353,0,32,28,373,377,35,247,248,597,596,0,265,264,612,613,35,340,341,690,689,0,305,307,655,653,35,253,254,603,602,0,284,285,633,632,35,168,169,518,517,0,182,179,527,530,35,261,262,611,610,0,294,296,644,642,35,79,80,429,428,0,98,95,440,444,35,87,88,437,436,0,70,67,412,415,35,332,333,682,681,0,304,302,650,652,35,160,161,510,509,0,169,173,521,517,35,71,72,421,420,0,83,86,431,428,35,176,177,526,525,0,158,156,504,506,35,184,185,534,533,0,134,132,480,482,35,103,104,453,452,0,96,18,365,441,35,318,319,668,667,0,332,330,678,680,35,324,325,674,673,0,320,318,666,668,35,146,147,496,495,0,110,112,460,458,35,138,139,488,487,0,111,109,457,459,35,95,96,445,444,0,51,50,395,396,35,111,112,461,460,0,180,187,535,528,35,119,120,469,468,0,196,194,542,544,35,43,44,393,392,0,42,57,402,387,35,130,131,480,479,0,150,144,492,498,35,218,219,568,567,0,236,238,586,584,35,210,211,560,559,0,227,226,573,575,35,35,36,385,384,0,0,2,345,347,35,310,311,660,659,0,341,343,691,689,35,51,52,401,400,0,102,100,446,448,35,59,60,409,408,0,74,71,416,419,35,294,295,644,643,0,209,210,558,557,35,302,303,652,651,0,325,327,675,673,35,232,233,582,581,0,257,258,606,605,35,194,195,544,543,0,127,131,479,475,35,19,20,369,368,0,30,34,379,375,35,27,28,377,376,0,40,36,381,385,35,280,281,630,629,0,228,225,574,577,35,272,273,622,621,0,255,253,601,603,35,224,225,574,573,0,245,246,594,593,35,11,12,361,360,0,3,5,348,350,35,264,265,614,613,0,291,286,634,639,35,240,241,590,589,0,276,275,623,624,35,248,249,598,597,0,264,259,609,612,35,3,4,353,352,0,35,32,377,380,35,339,340,689,688,0,303,305,653,651,35,173,174,523,522,0,168,164,512,516,35,82,83,432,431,0,87,84,429,432,35,256,257,606,605,0,288,289,637,636,35,165,166,515,514,0,183,185,533,531,35,90,91,440,439,0,60,59,404,405,35,331,332,681,680,0,306,304,652,654,35,181,182,531,530,0,142,140,488,490,35,74,75,424,423,0,92,94,439,437,35,189,190,539,538,0,119,118,466,467,35,66,67,416,415,0,69,72,417,414,35,300,203,552,649,0,224,223,571,572,35,149,150,499,498,0,116,120,468,464,35,104,105,454,453,0,18,20,363,365,35,319,320,669,668,0,330,328,676,678,35,106,0,349,455,0,19,22,367,364,35,323,324,673,672,0,322,320,668,670,35,157,158,507,506,0,161,163,511,509,35,96,97,446,445,0,50,49,394,395,35,141,142,491,490,0,103,105,451,453,35,347,348,697,696,0,319,321,669,667,35,112,113,462,461,0,187,189,537,535,35,133,134,483,482,0,130,121,470,478,35,120,121,470,469,0,194,192,540,542,35,213,214,563,562,0,229,233,581,576,35,40,41,390,389,0,26,31,376,371,35,205,206,555,554,0,221,220,568,569,35,32,33,382,381,0,16,12,357,361,35,311,312,661,660,0,343,344,692,691,35,287,288,637,636,0,201,200,548,547,35,48,49,398,397,0,99,96,441,445,35,295,296,645,644,0,210,211,559,558,35,56,57,406,405,0,85,82,427,430,35,303,304,653,652,0,327,329,677,675,35,279,280,629,628,0,231,228,577,580,35,18,19,368,367,0,27,30,375,372,35,197,198,547,546,0,135,139,487,483,35,26,27,376,375,0,43,40,385,388,35,245,246,595,594,0,268,267,615,616,35,271,272,621,620,0,262,255,603,610,35,10,11,360,359,0,6,3,350,351,35,221,222,571,570,0,240,242,590,588,35,229,230,579,578,0,252,254,602,600,35,237,238,587,586,0,274,277,625,622,35,2,3,352,351,0,39,35,380,384,35,85,86,435,434,0,76,73,418,421,35,342,343,692,691,0,309,311,659,657,35,166,167,516,515,0,185,184,532,533,35,263,264,613,612,0,295,291,639,643,35,93,94,443,442,0,53,52,397,398,35,348,301,650,697,0,321,323,671,669,35,334,335,684,683,0,300,297,647,648,35,77,78,427,426,0,18,101,447,449,35,69,70,419,418,0,77,79,424,422,35,174,175,524,523,0,164,162,510,512,35,182,183,532,531,0,140,136,484,488,35,109,110,459,458,0,166,172,520,514,35,316,317,666,665,0,336,334,682,684,35,101,102,451,450,0,45,44,389,390,35,326,327,676,675,0,317,314,662,665,35,144,145,494,493,0,106,108,456,454,35,117,118,467,466,0,197,198,546,545,35,152,153,502,501,0,137,143,491,485,35,136,137,486,485,0,115,113,461,463,35,125,126,475,474,0,177,171,519,525,35,202,155,504,551,0,151,155,503,499,35,128,129,478,477,0,159,153,501,507,35,45,46,395,394,0,63,81,426,408,35,37,38,387,386,0,1,9,354,346,35,220,221,570,569,0,239,240,588,587,35,212,213,562,561,0,230,229,576,578,35,53,54,403,402,0,97,93,438,443,35,308,309,658,657,0,337,339,687,685,35,204,205,554,553,0,222,221,569,570,35,286,287,636,635,0,199,201,547,549,35,292,293,642,641,0,206,207,555,554,35,61,62,411,410,0,68,62,407,413,35,21,22,371,370,0,38,41,386,383,35,234,235,584,583,0,263,266,614,611,35,278,279,628,627,0,237,231,580,585,35,190,191,540,539,0,118,122,469,466,35,196,197,546,545,0,133,135,483,481,35,29,30,379,378,0,33,29,374,378,35,270,271,620,619,0,271,262,610,619,35,13,14,363,362,0,4,7,352,349,35,226,227,576,575,0,248,249,597,596,35,5,6,355,354,0,28,25,370,373,35,250,251,600,599,0,261,260,608,607,35,242,243,592,591,0,273,272,620,621],
			"uvs"      : [],
			"normals"  : [-0.069277,0.714347,0.69631,0.0965,0.715476,0.691916,0.006104,0.719382,0.694571,-0.062166,0.713858,0.697501,0.060305,0.71395,0.697562,-0.000793,0.716422,0.697653,-0.122776,0.705741,0.697745,0.12244,0.70629,0.697195,-0.137791,0.704215,0.696463,0.196783,0.695425,0.691092,-0.180486,0.692831,0.698111,0.185736,0.692648,0.696921,-0.203314,0.687765,0.696829,-0.23426,0.676077,0.698569,0.24897,0.672689,0.696738,0.297311,0.659291,0.690573,-0.264016,0.66625,0.697409,-0.283456,0.656392,0.699118,-0.577349,-0.577349,0.577349,0.577349,0.577349,0.577349,-0.577349,0.577349,0.577349,0.007752,0.007141,0.999939,0.715537,-0.304575,0.628651,0.310831,0.646535,0.696677,-0.318674,0.641102,0.698111,-0.327799,0.634754,0.699698,0.393078,0.607196,0.690451,0.369976,0.614521,0.696707,-0.36726,0.61211,0.700278,-0.36671,0.613971,0.698935,0.425245,0.577471,0.69689,0.479232,0.541429,0.690756,-0.402081,0.589129,0.700858,-0.408032,0.586322,0.699759,0.475723,0.536302,0.697134,-0.4326,0.566424,0.701407,-0.443007,0.559313,0.700613,0.552385,0.465651,0.691366,0.520798,0.492141,0.697501,-0.459273,0.544359,0.701926,-0.472182,0.53383,0.701437,0.560198,0.44615,0.697897,0.610828,0.384259,0.692221,-0.49617,0.510514,0.702231,0.563829,-0.215949,0.797113,0.510544,-0.481185,0.712577,0.483627,-0.50676,0.713614,0.450484,-0.534989,0.714682,0.410565,-0.564898,0.71572,0.363933,-0.594989,0.716575,0.311441,-0.623432,0.717124,0.254891,-0.648427,0.717277,0.196905,-0.668661,0.717002,0.140324,-0.683493,0.7163,0.08771,-0.693228,0.715323,0.593921,0.399365,0.698386,-0.515641,0.489761,0.702994,0.654714,0.301279,0.693197,0.033387,0.353313,0.934874,0.040956,-0.698752,0.714164,-0.011383,-0.69686,0.717063,-0.008118,-0.695578,0.718375,-0.085849,-0.686941,0.72161,0.685324,0.219764,0.694235,-0.085482,-0.68685,0.721732,0.070132,-0.688589,0.721732,0.15067,-0.678121,0.719291,-0.175176,-0.668355,0.722892,-0.173467,-0.669515,0.722221,0.217048,-0.662038,0.717307,-0.267434,-0.635914,0.723899,-0.261361,-0.639668,0.7228,0.271706,-0.6433,0.715751,-0.358531,-0.588549,0.72457,-0.347056,-0.597003,0.723228,0.317118,-0.623554,0.71453,-0.443831,-0.526933,0.724784,0.355327,-0.603687,0.713614,-0.427686,-0.541856,0.723472,0.387982,-0.584094,0.712912,-0.518876,-0.45378,0.724448,0.704611,0.14185,0.695242,-0.500351,-0.4756,0.723472,0.416395,-0.564867,0.712363,-0.580523,-0.373363,0.723563,-0.562578,-0.400555,0.723197,0.441542,-0.545946,0.711966,-0.627552,-0.290475,0.722343,0.464217,-0.527177,0.711692,-0.612751,-0.319834,0.722617,0.714591,0.068606,0.696158,-0.660634,-0.209357,0.720908,0.485031,-0.508347,0.711539,-0.650288,-0.236702,0.721854,0.548021,-0.228248,0.804682,-0.681692,-0.133061,0.719413,0.577349,-0.577349,0.577349,-0.675619,-0.154241,0.720908,-0.693106,-0.063326,0.718009,0.712058,0.016511,0.701926,-0.689993,-0.074953,0.719901,-0.701987,-0.015198,0.711997,-0.700858,-0.018311,0.713034,-0.09006,0.71511,0.693167,0.083377,0.715049,0.694052,-0.001801,0.720023,0.69393,0.168645,0.700339,0.693594,-0.179846,0.69808,0.693014,0.254433,0.674367,0.693136,-0.267495,0.669515,0.692923,0.338847,0.636586,0.69274,-0.351329,0.629658,0.692862,0.419813,0.586779,0.692373,-0.429823,0.579028,0.69277,0.495041,0.525224,0.692099,-0.501602,0.518235,0.692648,0.562273,0.452834,0.691916,-0.565386,0.448012,0.692526,0.00119,-0.692801,0.721091,-0.083407,-0.687704,0.721152,0.619343,0.371105,0.691855,-0.619831,0.369243,0.692404,0.087954,-0.686331,0.721915,0.176733,-0.668569,0.722312,-0.168249,-0.671468,0.721641,0.264199,-0.638783,0.722587,-0.252846,-0.643941,0.722068,0.347942,-0.597125,0.722709,-0.335154,-0.604785,0.722404,0.66451,0.282205,0.691916,-0.663717,0.283181,0.692282,0.425764,-0.544359,0.722739,-0.412946,-0.554277,0.722617,0.495621,-0.481735,0.722648,-0.484115,-0.493149,0.72277,0.556017,-0.41084,0.722495,-0.546709,-0.422651,0.72277,0.696616,0.188818,0.692129,-0.695791,0.191473,0.692221,0.605853,-0.333567,0.722251,-0.599139,-0.344554,0.722678,0.644459,-0.2519,0.721946,-0.640248,-0.260933,0.722465,0.715262,0.093875,0.692496,-0.715171,0.096225,0.692251,0.671682,-0.167821,0.721549,-0.669454,-0.174139,0.722129,0.687735,-0.083346,0.721122,-0.686758,-0.086489,0.721702,0.72042,0.001953,0.693503,-0.720786,0.002258,0.693136,0.694052,-0.002411,0.719901,-0.693869,-0.003418,0.720084,-0.715171,-0.087863,0.693381,0.715232,-0.08652,0.693503,0.690176,0.074648,0.719748,-0.690146,0.074343,0.71981,0.67629,0.152654,0.720603,-0.67568,0.153569,0.720969,-0.698813,-0.177313,0.692953,0.69924,-0.176214,0.692801,0.651997,0.233192,0.721427,-0.649892,0.236915,0.722129,0.616047,0.314402,0.722221,-0.611164,0.321818,0.723106,-0.670247,-0.266518,0.692587,0.67037,-0.26719,0.692221,0.567766,0.39378,0.722861,-0.558702,0.404828,0.723808,0.507157,0.46852,0.72335,-0.49321,0.481979,0.724143,-0.629261,-0.353099,0.692312,0.627949,-0.356395,0.691794,0.435377,0.535569,0.723594,-0.416944,0.549425,0.724052,0.354442,0.592273,0.723563,-0.333384,0.604419,0.723502,-0.576159,-0.434645,0.692129,0.267251,0.636738,0.723228,-0.24659,0.64568,0.722648,0.572283,-0.440626,0.69158,0.177129,0.66805,0.722678,-0.160436,0.673452,0.72158,0.087313,0.686392,0.721946,-0.077822,0.689108,0.72042,0.002594,0.693533,0.720389,-0.511887,-0.508896,0.692068,0.504715,-0.516648,0.69158,-0.43791,-0.573748,0.692099,0.427564,-0.581866,0.691794,-0.356243,-0.627583,0.692221,0.34376,-0.634541,0.69219,-0.269173,-0.669332,0.692465,0.256478,-0.674032,0.692709,-0.179205,-0.698477,0.692801,0.168645,-0.700552,0.693381,-0.088809,-0.715171,0.693228,0.082675,-0.71511,0.694082,-0.001617,-0.719779,0.694174,-0.087161,0.715354,0.693289,0.028474,0.711081,0.702506,-0.014008,0.715537,0.698386,0.058321,0.709464,0.702292,0.089114,0.706381,0.70217,-0.179205,0.698965,0.692282,0.12009,0.701773,0.70217,0.150365,0.695761,0.702322,0.179083,0.688681,0.702597,-0.274026,0.668386,0.691488,0.20539,0.680868,0.702963,0.228645,0.672903,0.703452,0.248451,0.665273,0.704031,-0.367565,0.622425,0.690939,0.264565,0.658376,0.704642,0.276955,0.652608,0.705222,0.667623,0.437971,0.601978,-0.455214,0.561724,0.690786,-0.187841,-0.674703,0.713736,-0.226386,-0.663045,0.713492,-0.262398,-0.650075,0.713095,-0.295114,-0.636464,0.712577,-0.324229,-0.622822,0.711997,-0.34962,-0.609577,0.711417,-0.371471,-0.597186,0.710868,0.398572,-0.73159,0.553026,-0.532609,0.488662,0.691,-0.1077,-0.69216,0.713614,-0.147801,-0.68453,0.713797,-0.596667,0.407025,0.691549,-0.032899,-0.700705,0.712638,-0.068911,-0.697501,0.713248,-0.646077,0.321146,0.692373,0.08948,-0.68572,0.722312,0.014313,-0.697012,0.71688,0.181097,-0.666677,0.722983,0.272378,-0.634358,0.723441,0.359935,-0.588855,0.723655,-0.681143,0.235054,0.69335,0.440565,-0.531327,0.723563,0.511521,-0.463912,0.723228,0.571001,-0.389386,0.722678,-0.703391,0.151769,0.694388,0.618213,-0.310648,0.722007,0.653249,-0.230384,0.721213,-0.714835,0.073275,0.695395,0.676901,-0.150884,0.720389,0.69042,-0.073855,0.719596,-0.718955,-0.003754,0.694998,0.694662,0.001007,0.719291,0.688864,0.078677,0.720573,-0.715201,-0.087741,0.69335,0.672872,0.162114,0.721732,0.644612,0.249031,0.7228,-0.698843,-0.177709,0.692801,0.602771,0.336222,0.723594,-0.669881,-0.268014,0.692373,0.547258,0.419782,0.724052,0.479537,0.495682,0.724082,0.402509,0.560533,0.723685,-0.272988,0.649648,0.709525,0.666921,-0.439436,0.601703,0.455214,0.693106,0.558855,-0.627918,-0.355968,0.692038,0.319956,0.612293,0.722953,-0.257851,0.655416,0.709861,-0.240608,0.66155,0.710196,0.235694,0.650502,0.721976,-0.221076,0.667959,0.710562,-0.199316,0.674398,0.710898,-0.175359,0.680685,0.711234,0.152989,0.675924,0.720878,-0.573382,-0.438765,0.691855,-0.149358,0.686575,0.711539,-0.121525,0.691794,0.711783,0.07419,0.690207,0.719748,-0.092196,0.696097,0.711966,-0.061861,0.699332,0.712058,0.010376,0.698508,0.715476,-0.030946,0.701346,0.712119,-0.50737,-0.513688,0.691855,-0.431837,-0.578478,0.691977,-0.349223,-0.631519,0.692221,-0.262215,-0.671926,0.692618,0.264077,-0.66213,0.701285,0.232093,-0.672933,0.702322,0.205054,-0.68096,0.702994,-0.173498,-0.699606,0.693106,0.181219,-0.687246,0.703421,0.159368,-0.692373,0.703696,0.138646,-0.696677,0.703818,0.11829,-0.7004,0.703848,-0.085543,-0.71514,0.693686,0.097659,-0.703665,0.703757,0.076174,-0.706473,0.703574,0.053163,-0.708853,0.703299,-0.01355,-0.715629,0.698325,0.027863,-0.710715,0.702902,-0.097324,0.715079,0.69219,0.097324,0.715079,0.692221,0,0.721702,0.69216,-0.191992,0.695425,0.692434,0.191992,0.695425,0.692434,-0.281655,0.66393,0.692679,0.281655,0.66393,0.692679,-0.364971,0.621784,0.692923,0.364971,0.621784,0.692923,-0.441145,0.570086,0.693075,0.441145,0.570086,0.693075,-0.509659,0.509659,0.693136,0.509659,0.509659,0.693136,-0.570055,0.441145,0.693075,0.570086,0.441145,0.693075,-0.621784,0.364971,0.692923,0.621784,0.364971,0.692923,-0.66393,0.281655,0.692679,0.66393,0.281655,0.692679,0.695425,0.191992,0.692434,-0.695425,0.191992,0.692434,-0.715079,0.097324,0.69219,0.715079,0.097324,0.69219,-0.721702,0,0.69216,0.721702,0,0.69216,-0.715079,-0.097324,0.69219,0.715079,-0.097324,0.692221,-0.695425,-0.191992,0.692434,0.695425,-0.191992,0.692434,-0.66393,-0.281655,0.692679,0.66393,-0.281655,0.692679,-0.621784,-0.364971,0.692923,0.621784,-0.364971,0.692923,-0.570055,-0.441145,0.693075,0.570086,-0.441145,0.693075,-0.509659,-0.509659,0.693136,0.509659,-0.509659,0.693136,-0.441145,-0.570086,0.693075,0.441145,-0.570055,0.693075,-0.364971,-0.621784,0.692923,0.364971,-0.621784,0.692923,-0.281655,-0.66393,0.692679,0.281655,-0.66393,0.692679,-0.191992,-0.695425,0.692434,0.191992,-0.695425,0.692434,-0.097324,-0.715079,0.69219,0.097324,-0.715079,0.69219,0,-0.721702,0.69216,0.006195,0.718558,-0.695395,0.096438,0.715873,-0.691488,-0.069308,0.713218,-0.69747,-0.000793,0.716422,-0.697653,0.060305,0.71395,-0.697562,-0.062166,0.713858,-0.697501,-0.122776,0.705741,-0.697745,0.12244,0.70629,-0.697195,-0.1377,0.704825,-0.695883,0.196753,0.695425,-0.691092,-0.180486,0.692831,-0.698111,0.185736,0.692648,-0.696921,-0.203284,0.687796,-0.696829,-0.23426,0.676077,-0.698569,0.249062,0.672292,-0.697104,0.297311,0.659291,-0.690573,-0.264016,0.66625,-0.697409,-0.283456,0.656331,-0.699149,-0.577349,0.577319,-0.577349,0.577319,0.577319,-0.577349,-0.577349,-0.577349,-0.577319,0.007691,0.007141,-0.999939,0.715537,-0.304575,-0.628651,0.310892,0.646535,-0.696646,-0.318766,0.640797,-0.698355,-0.327769,0.634754,-0.699728,0.393109,0.607013,-0.690634,0.370006,0.614551,-0.696707,-0.367229,0.612079,-0.700308,-0.36668,0.614246,-0.698721,0.425214,0.577776,-0.696677,0.479263,0.541581,-0.690634,-0.402081,0.589129,-0.700858,-0.408002,0.586322,-0.699789,0.475692,0.536332,-0.697165,-0.4326,0.566424,-0.701407,-0.443007,0.559313,-0.700613,0.552324,0.465682,-0.691366,0.520798,0.492141,-0.697501,-0.459273,0.544359,-0.701926,-0.472182,0.53383,-0.701437,0.560198,0.44615,-0.697897,0.610828,0.384259,-0.692221,-0.49617,0.510514,-0.702231,0.563799,-0.215979,-0.797143,0.510605,-0.481094,-0.712607,0.483902,-0.506699,-0.713462,0.450392,-0.535173,-0.714621,0.410352,-0.564989,-0.715781,0.363933,-0.594989,-0.716575,0.311441,-0.623432,-0.717124,0.254891,-0.648427,-0.717277,0.196905,-0.668661,-0.717002,0.140324,-0.683493,-0.7163,0.08771,-0.693228,-0.715323,0.593921,0.399365,-0.698386,-0.515641,0.489761,-0.702994,0.654714,0.301279,-0.693197,0.033387,0.353313,-0.934874,0.040956,-0.698752,-0.714164,-0.011383,-0.69686,-0.717063,-0.008118,-0.695578,-0.718375,-0.085849,-0.686941,-0.72161,0.685324,0.219764,-0.694235,-0.085116,-0.690664,-0.718101,0.070132,-0.688345,-0.721946,0.15067,-0.678091,-0.719352,-0.17542,-0.667043,-0.724052,-0.173467,-0.669515,-0.722221,0.217048,-0.662038,-0.717307,-0.267434,-0.635914,-0.723899,-0.261361,-0.639668,-0.7228,0.271706,-0.6433,-0.715751,-0.35844,-0.58858,-0.724601,-0.347056,-0.597003,-0.723228,0.317118,-0.623554,-0.71453,-0.4438,-0.52739,-0.724448,0.355327,-0.603687,-0.713645,-0.427686,-0.541856,-0.723472,0.387982,-0.584094,-0.712912,-0.518937,-0.453352,-0.724662,0.704611,0.14185,-0.695242,-0.500351,-0.4756,-0.723472,0.416333,-0.564928,-0.712363,-0.580401,-0.373455,-0.723594,-0.562578,-0.400555,-0.723197,0.441542,-0.546342,-0.711692,-0.627644,-0.290628,-0.72219,0.464217,-0.526811,-0.711966,-0.612751,-0.319834,-0.722617,0.714591,0.068606,-0.696158,-0.660604,-0.209113,-0.720969,0.485092,-0.508682,-0.711234,-0.650288,-0.236702,-0.721854,0.548051,-0.227546,-0.804865,-0.681692,-0.133061,-0.719413,0.577319,-0.577319,-0.577349,0.577349,-0.577349,-0.577349,-0.675619,-0.154241,-0.720908,-0.693106,-0.063326,-0.718009,0.712027,0.01648,-0.701926,-0.689932,-0.075076,-0.719932,-0.701987,-0.015198,-0.711997,-0.700919,-0.018464,-0.712973,-0.577349,-0.577349,-0.577349,-0.577319,-0.577319,-0.577349,-0.00177,0.720542,-0.693381,0.083377,0.715567,-0.693503,-0.09003,0.71511,-0.693167,0.168706,0.700095,-0.693808,-0.179846,0.69805,-0.693075,0.254433,0.674551,-0.692953,-0.267495,0.669515,-0.692923,0.338847,0.636586,-0.69274,-0.351329,0.629658,-0.692862,0.419813,0.586779,-0.692373,-0.429823,0.579028,-0.69277,0.495041,0.525224,-0.692099,-0.501602,0.518235,-0.692648,0.562304,0.452712,-0.691977,-0.565386,0.448012,-0.692526,0.00119,-0.692801,-0.721091,-0.083407,-0.687704,-0.721152,0.619373,0.371166,-0.691763,0.087954,-0.686331,-0.721915,-0.619861,0.369152,-0.692434,0.176733,-0.668569,-0.722312,-0.168218,-0.671377,-0.721732,0.264199,-0.638783,-0.722587,-0.252846,-0.64388,-0.722098,0.347942,-0.597125,-0.722709,-0.335154,-0.604755,-0.722434,0.664479,0.282235,-0.691916,-0.663747,0.283242,-0.692221,0.425733,-0.544359,-0.72277,-0.412946,-0.554277,-0.722617,0.495621,-0.481704,-0.722678,-0.484115,-0.493149,-0.72277,0.556017,-0.41081,-0.722495,-0.546709,-0.422651,-0.72277,0.696585,0.188818,-0.692129,-0.695761,0.191443,-0.692251,0.605853,-0.333567,-0.722251,-0.599078,-0.344615,-0.722709,0.644429,-0.2519,-0.721946,-0.640309,-0.261025,-0.722373,0.715232,0.093814,-0.692526,-0.715232,0.096255,-0.692221,0.671651,-0.167821,-0.72158,-0.669362,-0.174047,-0.722221,0.687735,-0.083316,-0.721122,-0.686819,-0.08655,-0.72161,0.72045,0.001984,-0.693472,-0.720756,0.002319,-0.693136,0.694052,-0.002411,-0.719901,-0.693808,-0.003296,-0.720115,-0.715171,-0.087863,-0.693381,0.715201,-0.086489,-0.693503,0.690176,0.074648,-0.719748,-0.690146,0.074343,-0.71981,0.67629,0.152654,-0.720603,-0.67568,0.153569,-0.720969,-0.698813,-0.177313,-0.692953,0.69924,-0.176244,-0.692801,0.651997,0.233192,-0.721427,-0.649892,0.236732,-0.72216,0.616047,0.314402,-0.722221,-0.611225,0.321757,-0.723075,-0.670247,-0.266518,-0.692587,0.67037,-0.267159,-0.692221,0.567766,0.39378,-0.722861,-0.558702,0.405042,-0.723685,0.507157,0.46852,-0.72335,-0.49324,0.481796,-0.724265,-0.629261,-0.353099,-0.692312,0.627949,-0.356426,-0.691794,0.435377,0.535569,-0.723594,-0.416944,0.549669,-0.723869,0.354442,0.592273,-0.723563,-0.333415,0.604114,-0.723746,-0.576159,-0.434645,-0.692129,0.267251,0.636738,-0.723228,-0.246529,0.646016,-0.722373,0.572253,-0.440626,-0.69161,0.177129,0.66805,-0.722678,-0.160405,0.673452,-0.72158,0.087313,0.686392,-0.721946,-0.077822,0.689108,-0.72042,0.002594,0.693533,-0.720389,-0.511856,-0.508927,-0.692068,0.504715,-0.51677,-0.691488,-0.43791,-0.57387,-0.692007,0.427564,-0.581744,-0.691885,-0.356273,-0.627461,-0.692312,0.34376,-0.634541,-0.69219,-0.269173,-0.669332,-0.692465,0.256478,-0.674032,-0.692709,-0.179205,-0.698477,-0.692801,0.168615,-0.700797,-0.693106,-0.088778,-0.71511,-0.693319,0.082736,-0.714743,-0.694418,-0.001617,-0.719779,-0.694174,-0.014008,0.715537,-0.698386,0.028657,0.709311,-0.704276,-0.087161,0.715354,-0.693289,0.058199,0.711264,-0.700491,0.089114,0.706381,-0.70217,-0.179205,0.698965,-0.692282,0.12009,0.701773,-0.70217,0.150365,0.695761,-0.702322,0.179235,0.68804,-0.703177,-0.274026,0.668386,-0.691488,0.205267,0.681509,-0.702384,0.228614,0.672933,-0.703482,0.248451,0.665273,-0.704031,-0.367565,0.622425,-0.690939,0.264687,0.657888,-0.705039,0.276925,0.652913,-0.704947,0.667623,0.438002,-0.602008,-0.455214,0.561754,-0.690786,-0.187841,-0.674703,-0.713736,-0.226386,-0.663045,-0.713492,-0.262398,-0.650075,-0.713095,-0.295114,-0.636464,-0.712577,-0.324229,-0.622822,-0.711997,-0.349437,-0.609638,-0.711478,-0.371471,-0.597308,-0.710776,0.398541,-0.73159,-0.553087,-0.1077,-0.69216,-0.713614,-0.532609,0.488662,-0.691,-0.147832,-0.68453,-0.713797,-0.032899,-0.700705,-0.712638,-0.596667,0.407025,-0.691549,-0.068911,-0.697501,-0.713248,0.089694,-0.684805,-0.723136,-0.646077,0.321146,-0.692373,0.013398,-0.704306,-0.709738,0.181036,-0.667745,-0.722007,0.272469,-0.633839,-0.723838,0.359935,-0.588855,-0.723655,-0.681143,0.235023,-0.69335,0.440565,-0.531327,-0.723563,0.51146,-0.463973,-0.723228,0.571001,-0.38963,-0.722556,-0.703391,0.151769,-0.694388,0.618275,-0.310587,-0.721976,0.653188,-0.230293,-0.721305,-0.714835,0.073244,-0.695425,0.676992,-0.150975,-0.720298,0.690359,-0.073824,-0.719657,-0.719016,-0.003754,-0.694968,0.694723,0.001007,-0.71923,0.688833,0.078768,-0.720603,-0.715201,-0.08768,-0.693381,0.672872,0.162114,-0.721732,0.644612,0.248878,-0.722831,-0.698813,-0.17777,-0.692831,0.602802,0.336314,-0.723533,-0.669881,-0.268105,-0.692343,0.547166,0.419813,-0.724082,0.479507,0.495651,-0.724113,0.402509,0.560503,-0.723716,0.455214,0.693106,-0.558855,0.666921,-0.439436,-0.601703,-0.272988,0.649648,-0.709525,-0.627979,-0.355968,-0.692038,0.319926,0.612262,-0.722983,-0.257851,0.655416,-0.709861,-0.240608,0.66155,-0.710196,0.235786,0.650014,-0.722373,-0.221076,0.667959,-0.710562,-0.199316,0.674398,-0.710898,-0.175359,0.680685,-0.711234,0.152867,0.676382,-0.720481,-0.573382,-0.438643,-0.691916,-0.149358,0.686575,-0.711539,-0.121525,0.691794,-0.711783,0.07416,0.690207,-0.719748,-0.092196,0.696097,-0.711966,-0.061861,0.699332,-0.712058,0.010376,0.698508,-0.715476,-0.030946,0.701346,-0.712119,-0.50734,-0.513718,-0.691855,-0.431837,-0.578631,-0.691855,-0.349254,-0.631367,-0.692343,-0.262215,-0.671926,-0.692618,0.264077,-0.66213,-0.701285,0.232093,-0.672933,-0.702322,0.205054,-0.68096,-0.702994,-0.173498,-0.699606,-0.693106,0.181188,-0.687246,-0.703421,0.159276,-0.693258,-0.702811,0.138768,-0.695822,-0.704642,0.11829,-0.7004,-0.703848,-0.085543,-0.71514,-0.693686,0.097659,-0.703665,-0.703757,0.076083,-0.708121,-0.701926,0.053316,-0.707297,-0.704856,-0.01355,-0.715629,-0.698325,0.027863,-0.710715,-0.702902,0,0.721702,-0.69216,0.097324,0.715079,-0.692221,-0.097324,0.715079,-0.69219,-0.191992,0.695425,-0.692434,0.191992,0.695425,-0.692434,-0.281655,0.66393,-0.692679,0.281655,0.66393,-0.692679,-0.364971,0.621784,-0.692923,0.364971,0.621784,-0.692923,-0.441237,0.569628,-0.693381,0.441145,0.570055,-0.693106,-0.50972,0.510025,-0.692831,0.509659,0.509659,-0.693136,-0.569994,0.441237,-0.693106,0.570086,0.441145,-0.693075,-0.621784,0.364971,-0.692923,0.621784,0.364971,-0.692923,-0.66393,0.281655,-0.692679,0.66393,0.281655,-0.692679,0.695425,0.191992,-0.692434,-0.695395,0.191748,-0.692557,-0.715232,0.097385,-0.692038,0.715018,0.09711,-0.692282,-0.721641,0.000183,-0.692251,0.721854,0,-0.692007,-0.715079,-0.097324,-0.692221,0.715018,-0.09711,-0.692282,-0.695334,-0.192175,-0.692496,0.695425,-0.192022,-0.692434,-0.664052,-0.281808,-0.692526,0.66393,-0.281655,-0.692709,-0.621784,-0.364666,-0.693075,0.621784,-0.364971,-0.692923,-0.569964,-0.441237,-0.693106,0.569964,-0.441237,-0.693106,-0.50969,-0.509995,-0.692862,0.509598,-0.510056,-0.692892,-0.441237,-0.569628,-0.693381,0.441237,-0.570055,-0.693014,-0.36494,-0.621723,-0.692953,0.365032,-0.621326,-0.693289,-0.281655,-0.66393,-0.692679,0.281594,-0.664571,-0.692099,-0.191931,-0.695334,-0.692557,0.192145,-0.694693,-0.693136,-0.097232,-0.716208,-0.691061,0.097201,-0.71453,-0.69277,-0.000183,-0.720084,-0.693869],
			
			"skinIndices"  : [],
			"skinWeights"  : [],
			"morphTargets" : [],
			
			"bones"      : [],
			"animations" : [],
			
			"colors"    : [],
			"materials" : [
				{
					"DbgColor": 15658734,
					"DbgIndex": 0,
					"DbgName": "default",
					"vertexColors": false
				}
			]

	}
